[gd_resource type="AudioBusLayout" load_steps=4 format=2]

[sub_resource type="AudioEffectAmplify" id=1]
resource_name = "Amplify"

[sub_resource type="AudioEffectRecord" id=2]
resource_name = "Record"

[sub_resource type="AudioEffectChorus" id=3]
resource_name = "Chorus"

[resource]
bus/0/volume_db = 0.0694828
bus/0/effect/0/effect = SubResource( 1 )
bus/0/effect/0/enabled = false
bus/0/effect/1/effect = SubResource( 2 )
bus/0/effect/1/enabled = true
bus/0/effect/2/effect = SubResource( 3 )
bus/0/effect/2/enabled = true
